{
	"id": "17e390e0-3827-49d0-a914-eb3eec87909e",
	"name": "Local",
	"values": [
		{
			"key": "baseUrl",
			"value": "http://localhost:3000/api/v1",
			"type": "default",
			"enabled": true
		}
	],
	"_postman_variable_scope": "environment",
	"_postman_exported_at": "2022-07-08T09:47:26.383Z",
	"_postman_exported_using": "Postman/9.24.1"
}